Read and write BED files with genio
…
To create annotation tables that look a bit more interesting than the defaults, let us create some slightly more realistic values. Here we use our first genio function!

library(genio)

First we create and edit the locus annotations table.

# We have to specify the number of loci
bim <- make_bim( n = m_loci )

# Inspect the default values
bim
#> # A tibble: 10,001 × 6
#>      chr    id  posg   pos   alt   ref
#>    <dbl> <int> <dbl> <int> <dbl> <dbl>
#>  1     1     1     0     1     2     1
#>  2     1     2     0     2     2     1
#>  3     1     3     0     3     2     1
#>  4     1     4     0     4     2     1
#>  5     1     5     0     5     2     1
#>  6     1     6     0     6     2     1
#>  7     1     7     0     7     2     1
#>  8     1     8     0     8     2     1
#>  9     1     9     0     9     2     1
#> 10     1    10     0    10     2     1
#> # … with 9,991 more rows
# Let's add the "chr" prefix to the chromosome values,
# so we recognize them when we see them later.
bim$chr <- paste0('chr', bim$chr)
# Make SNP IDs look like "rs" IDs
bim$id <- paste0('rs', bim$id)
# Make positions 1000 bigger
bim$pos <- bim$pos * 1000
# Select randomly between Cs and Gs for the reference alleles
bim$ref <- sample(c('C', 'G'), m_loci, replace = TRUE)
# Select randomly between As and Ts for the alternative alleles
bim$alt <- sample(c('A', 'T'), m_loci, replace = TRUE)

# Inspect the table with our changes
bim
#> # A tibble: 10,001 × 6
#>    chr   id     posg   pos alt   ref  
#>    <chr> <chr> <dbl> <dbl> <chr> <chr>
#>  1 chr1  rs1       0  1000 A     C    
#>  2 chr1  rs2       0  2000 A     G    
#>  3 chr1  rs3       0  3000 A     C    
#>  4 chr1  rs4       0  4000 A     G    
#>  5 chr1  rs5       0  5000 T     C    
#>  6 chr1  rs6       0  6000 A     C    
#>  7 chr1  rs7       0  7000 A     G    
#>  8 chr1  rs8       0  8000 A     G    
#>  9 chr1  rs9       0  9000 T     G    
#> 10 chr1  rs10      0 10000 T     G    
#> # … with 9,991 more rows

Now we similarly create and edit the individual annotations table.

# Specify the number of individuals
fam <- make_fam( n = n_ind )

# Inspect the default values
fam
#> # A tibble: 1,001 × 6
#>      fam    id   pat   mat   sex pheno
#>    <int> <int> <dbl> <dbl> <dbl> <dbl>
#>  1     1     1     0     0     0     0
#>  2     2     2     0     0     0     0
#>  3     3     3     0     0     0     0
#>  4     4     4     0     0     0     0
#>  5     5     5     0     0     0     0
#>  6     6     6     0     0     0     0
#>  7     7     7     0     0     0     0
#>  8     8     8     0     0     0     0
#>  9     9     9     0     0     0     0
#> 10    10    10     0     0     0     0
#> # … with 991 more rows

# Add prefixes to families and IDs to recognize them later
fam$fam <- paste0('fam', fam$fam)
fam$id <- paste0('id', fam$id)
# Sex values are usually 1 and 2
fam$sex <- sample(1:2, n_ind, replace = TRUE)
# Let's make phenotypes continuous.
# Draw independently from Standard Normal.
fam$pheno <- rnorm(n_ind)
# Let's leave maternal and paternal IDs as missing

# Inspect again
fam
#> # A tibble: 1,001 × 6
#>    fam   id      pat   mat   sex   pheno
#>    <chr> <chr> <dbl> <dbl> <int>   <dbl>
#>  1 fam1  id1       0     0     1 -0.0308
#>  2 fam2  id2       0     0     2 -0.576 
#>  3 fam3  id3       0     0     2 -1.57  
#>  4 fam4  id4       0     0     1 -0.861 
#>  5 fam5  id5       0     0     2 -1.25  
#>  6 fam6  id6       0     0     1 -0.0796
#>  7 fam7  id7       0     0     2  1.24  
#>  8 fam8  id8       0     0     1 -2.16  
#>  9 fam9  id9       0     0     1  0.660 
#> 10 fam10 id10      0     0     1  0.975 
#> # … with 991 more rows
…
# The locus annotations
data_genio$bim
#> # A tibble: 10,001 × 6
#>    chr   id     posg   pos alt   ref  
#>    <chr> <chr> <dbl> <int> <chr> <chr>
#>  1 chr1  rs1       0  1000 A     C    
#>  2 chr1  rs2       0  2000 A     G    
#>  3 chr1  rs3       0  3000 A     C    
#>  4 chr1  rs4       0  4000 A     G    
#>  5 chr1  rs5       0  5000 T     C    
#>  6 chr1  rs6       0  6000 A     C    
#>  7 chr1  rs7       0  7000 A     G    
#>  8 chr1  rs8       0  8000 A     G    
#>  9 chr1  rs9       0  9000 T     G    
#> 10 chr1  rs10      0 10000 T     G    
#> # … with 9,991 more rows

# The individual annotations
data_genio$fam
#> # A tibble: 1,001 × 6
#>    fam   id    pat   mat     sex   pheno
#>    <chr> <chr> <chr> <chr> <int>   <dbl>
#>  1 fam1  id1   0     0         1 -0.0308
#>  2 fam2  id2   0     0         2 -0.576 
#>  3 fam3  id3   0     0         2 -1.57  
#>  4 fam4  id4   0     0         1 -0.861 
#>  5 fam5  id5   0     0         2 -1.25  
#>  6 fam6  id6   0     0         1 -0.0796
#>  7 fam7  id7   0     0         2  1.24  
#>  8 fam8  id8   0     0         1 -2.16  
#>  9 fam9  id9   0     0         1  0.660 
#> 10 fam10 id10  0     0         1  0.975 
#> # … with 991 more rows
…
